%YAML 1.1
%TAG !u! tag:unity3d.com,2011:
--- !u!114 &11400000
MonoBehaviour:
  m_ObjectHideFlags: 0
  m_CorrespondingSourceObject: {fileID: 0}
  m_PrefabInstance: {fileID: 0}
  m_PrefabAsset: {fileID: 0}
  m_GameObject: {fileID: 0}
  m_Enabled: 1
  m_EditorHideFlags: 0
  m_Script: {fileID: 11500000, guid: 7642cb84bfd7747479721b300e2d7a35, type: 3}
  m_Name: Story10
  m_EditorClassIdentifier: 
  storyNo: 10
  image: {fileID: 21300000, guid: 8f8962da1e732054292b495974aa622b, type: 3}
  _name: Story10
  description: Story1Desc
  healthRequirement: 75
  attack: 25000
  defense: 25000
  strength: 500
  intelligence: 500
  moneyMin: 2500000
  moneyMax: 2500000
  crimePointMin: 1500
  crimePointMax: 1500
