%YAML 1.1
%TAG !u! tag:unity3d.com,2011:
--- !u!114 &11400000
MonoBehaviour:
  m_ObjectHideFlags: 0
  m_CorrespondingSourceObject: {fileID: 0}
  m_PrefabInstance: {fileID: 0}
  m_PrefabAsset: {fileID: 0}
  m_GameObject: {fileID: 0}
  m_Enabled: 1
  m_EditorHideFlags: 0
  m_Script: {fileID: 11500000, guid: b3ee05b640e2d374ca7e4bf1718efa72, type: 3}
  m_Name: 9Bank
  m_EditorClassIdentifier: 
  doWithClan: 0
  rank: 9
  image: {fileID: 21300000, guid: b172db666ebb1074c95fba8d9a4dc0a8, type: 3}
  _name: Bank
  description: BankDesc
  healthRequirement: 6
  attack: 10000
  defense: 8000
  strength: 350
  intelligence: 350
  moneyMin: 15000
  moneyMax: 20000
  crimePointMin: 19
  crimePointMax: 20
  attackPeriod: 180
  jailRate: 35
  jailSeconds: 1200
