%YAML 1.1
%TAG !u! tag:unity3d.com,2011:
--- !u!114 &11400000
MonoBehaviour:
  m_ObjectHideFlags: 0
  m_CorrespondingSourceObject: {fileID: 0}
  m_PrefabInstance: {fileID: 0}
  m_PrefabAsset: {fileID: 0}
  m_GameObject: {fileID: 0}
  m_Enabled: 1
  m_EditorHideFlags: 0
  m_Script: {fileID: 11500000, guid: 858a897041e2653418487360348a83c3, type: 3}
  m_Name: Hand5
  m_EditorClassIdentifier: 
  hash: 727962575
  description: 
  buyPrice: 100000
  sellPrice: 50000
  sellable: 1
  maxStack: 1
  image: {fileID: 21300000, guid: 4742cdd894aff2248a652fcb2aca4f3f, type: 3}
  strengthRequirement: 225
  intelligenceRequirement: 225
  cooldownBuff: {fileID: 0}
  category: 4
  attackBonus: 0
  defenseBonus: 150
  strengthBonus: 0
  intelligenceBonus: 0
  inventorySizeBonus: 0
  validate: 0
