%YAML 1.1
%TAG !u! tag:unity3d.com,2011:
--- !u!114 &11400000
MonoBehaviour:
  m_ObjectHideFlags: 0
  m_CorrespondingSourceObject: {fileID: 0}
  m_PrefabInstance: {fileID: 0}
  m_PrefabAsset: {fileID: 0}
  m_GameObject: {fileID: 0}
  m_Enabled: 1
  m_EditorHideFlags: 0
  m_Script: {fileID: 11500000, guid: 858a897041e2653418487360348a83c3, type: 3}
  m_Name: Weapon2
  m_EditorClassIdentifier: 
  hash: 22946175
  description: 
  buyPrice: 5000
  sellPrice: 2500
  sellable: 1
  maxStack: 1
  image: {fileID: 21300000, guid: 41875f2d842585546bd3bc1784c0c17d, type: 3}
  strengthRequirement: 100
  intelligenceRequirement: 100
  cooldownBuff: {fileID: 0}
  category: 1
  attackBonus: 100
  defenseBonus: 0
  strengthBonus: 0
  intelligenceBonus: 0
  inventorySizeBonus: 0
  validate: 0
