%YAML 1.1
%TAG !u! tag:unity3d.com,2011:
--- !u!114 &11400000
MonoBehaviour:
  m_ObjectHideFlags: 0
  m_CorrespondingSourceObject: {fileID: 0}
  m_PrefabInstance: {fileID: 0}
  m_PrefabAsset: {fileID: 0}
  m_GameObject: {fileID: 0}
  m_Enabled: 1
  m_EditorHideFlags: 0
  m_Script: {fileID: 11500000, guid: 4d5bffa1de3af074a8084ae1188f702a, type: 3}
  m_Name: 2Apart
  m_EditorClassIdentifier: 
  image: {fileID: 21300000, guid: 5243c0ca6b78f7847888318da489d803, type: 3}
  _name: Apart
  description: ApartDesc
  buyPrice: 1500000
  income: 40000
