{
"skeleton": {
	"hash": "MqZUKLqnHdAdf9f+why9zNgGicQ",
	"spine": "3.8.75",
	"x": -298.72,
	"y": -99.54,
	"width": 839.26,
	"height": 500,
	"images": "./Images/",
	"audio": ""
},
"bones": [
	{ "name": "root", "y": -12.83 },
	{ "name": "All bone", "parent": "root", "x": 0.4, "y": 64.61 },
	{ "name": "Body", "parent": "All bone", "length": 47.51, "rotation": 88.21, "x": -1.48, "y": 17.81 },
	{ "name": "Hand B1", "parent": "Body", "length": 26.46, "rotation": 165.8, "x": 30.98, "y": 18.16 },
	{ "name": "Hand B2", "parent": "Hand B1", "length": 29.95, "rotation": -64.98, "x": 30.63, "y": -5.29 },
	{ "name": "Hand F1", "parent": "Body", "length": 31.25, "rotation": -130.8, "x": 38.73, "y": -18.83 },
	{ "name": "Hand F2", "parent": "Hand F1", "length": 35.99, "rotation": -39.11, "x": 35.17, "y": -0.43 },
	{ "name": "Head", "parent": "Body", "length": 44.1, "rotation": 44.74, "x": 56.21, "y": -5.3 },
	{ "name": "Leg B1", "parent": "All bone", "length": 19.67, "rotation": -88.92, "x": -10.02, "y": -7.79 },
	{ "name": "Leg B2", "parent": "Leg B1", "length": 26.36, "rotation": -3.5, "x": 24.12, "y": 0.29 },
	{ "name": "Leg B3", "parent": "Leg B2", "length": 20.06, "rotation": -84.4, "x": 31.88, "y": 1.35 },
	{ "name": "Leg F1", "parent": "All bone", "length": 27.86, "rotation": -86.95, "x": 22.4, "y": -10.02 },
	{ "name": "Leg F2", "parent": "Leg F1", "length": 23.05, "rotation": 0.64, "x": 32, "y": 0.89 },
	{ "name": "Leg F3", "parent": "Leg F2", "length": 21.31, "rotation": -86.69, "x": 27.61, "y": 1.56 },
	{ "name": "Shadow", "parent": "root", "length": 60.5, "rotation": -179.53, "x": 31.38, "y": -10.45 },
	{ "name": "Weapon", "parent": "Hand B2", "length": 50.98, "rotation": -150.12, "x": 63.96, "y": -12.04 }
],
"slots": [
	{ "name": "Shadow", "bone": "Shadow", "attachment": "Shadow" },
	{ "name": "Hand-B1", "bone": "Hand B1", "attachment": "Hand-B1" },
	{ "name": "Leg-B1", "bone": "Leg B1", "attachment": "Leg-B1" },
	{ "name": "Leg-F1", "bone": "Leg F1", "attachment": "Leg-F1" },
	{ "name": "Leg-B3", "bone": "Leg B3", "attachment": "Leg-B3" },
	{ "name": "Leg-B2", "bone": "Leg B2", "attachment": "Leg-B2" },
	{ "name": "Hand-B2", "bone": "Hand B2", "attachment": "Hand-B2" },
	{ "name": "Body", "bone": "Body", "attachment": "Body" },
	{ "name": "Head", "bone": "Head", "attachment": "Head" },
	{ "name": "Hand-F1", "bone": "Hand F1", "attachment": "Hand-F1" },
	{ "name": "HandF2", "bone": "Hand F2", "attachment": "HandF2" },
	{ "name": "Leg-F2", "bone": "Leg F2", "attachment": "Leg-F2" },
	{ "name": "Leg-F3", "bone": "Leg F3", "attachment": "Leg-F3" },
	{ "name": "Weapon", "bone": "Weapon", "attachment": "Weapon" },
	{ "name": "Box", "bone": "root", "color": "ffffff00", "attachment": "Box" }
],
"skins": [
	{
		"name": "default",
		"attachments": {
			"Shadow": {
				"Shadow": { "x": 31.42, "y": -1.01, "rotation": 179.53, "width": 135, "height": 17 }
			},
			"Body": {
				"Body": { "x": 9.77, "y": -5.79, "rotation": -88.21, "width": 59, "height": 81 }
			},
			"Head": {
				"Head": { "x": 22.01, "y": -9.93, "rotation": -132.95, "width": 86, "height": 106 },
				"Head-2": { "x": 22.01, "y": -9.93, "rotation": -132.95, "width": 86, "height": 106 }
			},
			"Hand-B2": {
				"Hand-B2": { "x": 16.97, "y": -1.01, "rotation": -160.3, "width": 51, "height": 26 }
			},
			"Hand-F1": {
				"Hand-F1": { "x": 20.5, "y": 1.37, "rotation": 42.59, "width": 28, "height": 26 }
			},
			"Leg-F1": {
				"Leg-F1": { "x": 7.66, "y": -0.46, "rotation": 86.95, "width": 15, "height": 39 }
			},
			"Box": {
				"Box": { "x": 120.9, "y": 163.3, "scaleX": 1.6785, "width": 500, "height": 500 }
			},
			"Leg-F3": {
				"Leg-F3": { "x": 11.48, "y": 0.81, "rotation": 173, "width": 41, "height": 13 }
			},
			"Hand-B1": {
				"Hand-B1": { "x": 10.94, "y": -0.39, "rotation": 122.11, "width": 23, "height": 31 }
			},
			"Leg-B1": {
				"Leg-B1": { "x": 4.95, "y": -0.08, "rotation": 88.92, "width": 14, "height": 38 }
			},
			"Leg-B2": {
				"Leg-B2": { "x": 12.03, "y": 2.26, "rotation": 92.42, "width": 15, "height": 40 }
			},
			"Leg-B3": {
				"Leg-B3": { "x": 9.01, "y": -0.52, "rotation": 176.82, "width": 40, "height": 12 }
			},
			"Leg-F2": {
				"Leg-F2": { "x": 5.96, "y": 1.73, "rotation": 86.31, "width": 16, "height": 41 }
			},
			"HandF2": {
				"HandF2": { "x": 21.3, "y": 1.36, "rotation": 81.7, "width": 33, "height": 50 }
			},
			"Weapon": {
				"Weapon": { "x": 47.68, "y": -7.81, "rotation": -42.12, "width": 111, "height": 182 }
			}
		}
	}
],
"animations": {
	"Attack": {
		"bones": {
			"root": {
				"rotate": [
					{}
				],
				"translate": [
					{}
				],
				"scale": [
					{}
				],
				"shear": [
					{}
				]
			},
			"All bone": {
				"rotate": [
					{}
				],
				"translate": [
					{}
				],
				"scale": [
					{}
				],
				"shear": [
					{}
				]
			},
			"Body": {
				"rotate": [
					{},
					{ "time": 0.1667, "angle": -14.08 },
					{ "time": 0.5, "angle": 24.04 }
				],
				"translate": [
					{},
					{ "time": 0.1667, "x": 6.17, "y": 3.09 },
					{ "time": 0.3333, "x": 11.32, "y": 4.12 },
					{ "time": 0.5, "x": -5.14, "y": -5.15 }
				],
				"scale": [
					{}
				],
				"shear": [
					{}
				]
			},
			"Hand F1": {
				"rotate": [
					{},
					{ "time": 0.1667, "angle": 15.18 },
					{ "time": 0.3333, "angle": 32.78 },
					{ "time": 0.5, "angle": 9.62 }
				],
				"translate": [
					{}
				],
				"scale": [
					{}
				],
				"shear": [
					{}
				]
			},
			"Hand F2": {
				"rotate": [
					{}
				],
				"translate": [
					{}
				],
				"scale": [
					{}
				],
				"shear": [
					{}
				]
			},
			"Hand B1": {
				"rotate": [
					{},
					{ "time": 0.1667, "angle": -28.18 },
					{ "time": 0.3333, "angle": -70.65 },
					{ "time": 0.5, "angle": -4.07 }
				],
				"translate": [
					{},
					{ "time": 0.1667, "x": -5.08, "y": 2.83 },
					{ "time": 0.3333, "x": 2.83, "y": 5.08 }
				],
				"scale": [
					{}
				],
				"shear": [
					{}
				]
			},
			"Hand B2": {
				"rotate": [
					{},
					{ "time": 0.3333, "angle": 19.97 }
				],
				"translate": [
					{}
				],
				"scale": [
					{}
				],
				"shear": [
					{}
				]
			},
			"Weapon": {
				"rotate": [
					{}
				],
				"translate": [
					{},
					{ "time": 0.3333, "x": 13.79, "y": -5.86 }
				],
				"scale": [
					{}
				],
				"shear": [
					{}
				]
			},
			"Head": {
				"rotate": [
					{}
				],
				"translate": [
					{}
				],
				"scale": [
					{}
				],
				"shear": [
					{}
				]
			},
			"Leg F1": {
				"rotate": [
					{}
				],
				"translate": [
					{}
				],
				"scale": [
					{}
				],
				"shear": [
					{}
				]
			},
			"Leg F2": {
				"rotate": [
					{}
				],
				"translate": [
					{}
				],
				"scale": [
					{}
				],
				"shear": [
					{}
				]
			},
			"Leg F3": {
				"rotate": [
					{}
				],
				"translate": [
					{}
				],
				"scale": [
					{}
				],
				"shear": [
					{}
				]
			},
			"Leg B1": {
				"rotate": [
					{},
					{ "time": 0.1667, "angle": -38.52 },
					{ "time": 0.3333, "angle": -64.99 },
					{ "time": 0.5, "angle": -19.81 }
				],
				"translate": [
					{},
					{ "time": 0.3333, "y": 2.06 },
					{ "time": 0.5, "x": 6.17, "y": 2.06 }
				],
				"scale": [
					{}
				],
				"shear": [
					{}
				]
			},
			"Leg B2": {
				"rotate": [
					{},
					{ "time": 0.1667, "angle": 34.12 },
					{ "time": 0.3333, "angle": 62.36 },
					{ "time": 0.5, "angle": 24.68 }
				],
				"translate": [
					{}
				],
				"scale": [
					{}
				],
				"shear": [
					{}
				]
			},
			"Leg B3": {
				"rotate": [
					{}
				],
				"translate": [
					{}
				],
				"scale": [
					{}
				],
				"shear": [
					{}
				]
			},
			"Shadow": {
				"rotate": [
					{}
				],
				"translate": [
					{}
				],
				"scale": [
					{}
				],
				"shear": [
					{}
				]
			}
		}
	},
	"Death": {
		"slots": {
			"Head": {
				"attachment": [
					{ "time": 0.1667, "name": "Head-2" }
				]
			}
		},
		"bones": {
			"All bone": {
				"rotate": [
					{},
					{ "time": 0.4667, "angle": -39.32 },
					{ "time": 0.5667, "angle": -85.44 }
				],
				"translate": [
					{},
					{ "time": 0.3333, "x": 34.96, "y": 33.01 },
					{ "time": 0.4667, "x": 61.17, "y": 18.45 },
					{ "time": 0.5667, "x": 95.16, "y": -19.42 }
				],
				"scale": [
					{}
				],
				"shear": [
					{}
				]
			},
			"Body": {
				"rotate": [
					{},
					{ "time": 0.1667, "angle": -22.64 }
				],
				"translate": [
					{},
					{ "time": 0.1667, "x": 24.27, "y": 16.51 }
				],
				"scale": [
					{}
				],
				"shear": [
					{}
				]
			},
			"Hand F1": {
				"rotate": [
					{},
					{ "time": 0.1667, "angle": -22.16 },
					{ "time": 0.3333, "angle": 297.65 },
					{ "time": 0.4667, "angle": 272.79 },
					{ "time": 0.5667, "angle": 228.1 },
					{ "time": 0.6333, "angle": 179.58 },
					{ "time": 0.8333, "angle": 157.4, "curve": "stepped" },
					{ "time": 0.9333, "angle": 157.4 }
				],
				"translate": [
					{}
				],
				"scale": [
					{}
				],
				"shear": [
					{}
				]
			},
			"Hand F2": {
				"rotate": [
					{}
				],
				"translate": [
					{}
				],
				"scale": [
					{}
				],
				"shear": [
					{}
				]
			},
			"Hand B1": {
				"rotate": [
					{},
					{ "time": 0.1667, "angle": -15.82 },
					{ "time": 0.3333, "angle": -27.99 },
					{ "time": 0.4667, "angle": -66.34 },
					{ "time": 0.5667, "angle": -88.43 },
					{ "time": 0.6333, "angle": -106.61 },
					{ "time": 0.8333, "angle": -122.37, "curve": "stepped" },
					{ "time": 0.9333, "angle": -122.37 }
				],
				"translate": [
					{ "x": 0.55, "y": -17.48 },
					{ "time": 0.1667, "x": -9.08, "y": 1.08 },
					{ "time": 0.3333, "x": -6.13, "y": 3.16 },
					{ "time": 0.4667, "x": -4.24, "y": 5.66 },
					{ "time": 0.5667, "x": 31.67, "y": 1.49 },
					{ "time": 0.6333, "x": 7.36, "y": 3.09 },
					{ "time": 0.8333, "x": 41.01, "y": 15.25 }
				],
				"scale": [
					{}
				],
				"shear": [
					{}
				]
			},
			"Hand B2": {
				"rotate": [
					{}
				],
				"translate": [
					{}
				],
				"scale": [
					{}
				],
				"shear": [
					{}
				]
			},
			"Weapon": {
				"rotate": [
					{},
					{ "time": 0.5667, "angle": -2.96 },
					{ "time": 0.6333, "angle": -19.51 },
					{ "time": 0.8333, "angle": 324.02 }
				],
				"translate": [
					{},
					{ "time": 0.1667, "x": 14.17, "y": 14.27 },
					{ "time": 0.4667, "x": 52.22, "y": 34.74 },
					{ "time": 0.5667, "x": 58.5, "y": 29.26 },
					{ "time": 0.6333, "x": 91.53, "y": 45.97 },
					{ "time": 0.8333, "x": 72.14, "y": 67.85 },
					{ "time": 1, "x": 95.15, "y": 88.16 }
				],
				"scale": [
					{}
				],
				"shear": [
					{}
				]
			},
			"Head": {
				"rotate": [
					{},
					{ "time": 0.1667, "angle": -7.72 },
					{ "time": 0.5667, "angle": 4.23 },
					{ "time": 0.8333, "angle": 13.66, "curve": "stepped" },
					{ "time": 0.9333, "angle": 13.66 }
				],
				"translate": [
					{}
				],
				"scale": [
					{}
				],
				"shear": [
					{}
				]
			},
			"Leg F1": {
				"rotate": [
					{},
					{ "time": 0.1667, "angle": -26.82 },
					{ "time": 0.3333, "angle": -52.78 },
					{ "time": 0.5667, "angle": -82.22 },
					{ "time": 0.6333, "angle": -29.83 },
					{ "time": 0.8333, "angle": -9.71, "curve": "stepped" },
					{ "time": 0.9333, "angle": -9.71 }
				],
				"translate": [
					{},
					{ "time": 0.3333, "y": 7.77 }
				],
				"scale": [
					{}
				],
				"shear": [
					{}
				]
			},
			"Leg F2": {
				"rotate": [
					{},
					{ "time": 0.3333, "angle": 9.57 }
				],
				"translate": [
					{}
				],
				"scale": [
					{}
				],
				"shear": [
					{}
				]
			},
			"Leg F3": {
				"rotate": [
					{},
					{ "time": 0.1667, "angle": 19.66 }
				],
				"translate": [
					{}
				],
				"scale": [
					{}
				],
				"shear": [
					{}
				]
			},
			"Leg B1": {
				"rotate": [
					{},
					{ "time": 0.1667, "angle": -42.16 },
					{ "time": 0.3333, "angle": -83.52 },
					{ "time": 0.5667, "angle": 264.15 },
					{ "time": 0.6333, "angle": -37.75 },
					{ "time": 0.8333, "angle": -7.23, "curve": "stepped" },
					{ "time": 0.9333, "angle": -7.23 }
				],
				"translate": [
					{},
					{ "time": 0.1667, "x": 13.59, "y": 20.39 },
					{ "time": 0.3333, "x": 13.59, "y": 28.16 }
				],
				"scale": [
					{}
				],
				"shear": [
					{}
				]
			},
			"Leg B2": {
				"rotate": [
					{},
					{ "time": 0.1667, "angle": 17.52 },
					{ "time": 0.3333, "angle": 36.47 }
				],
				"translate": [
					{}
				],
				"scale": [
					{}
				],
				"shear": [
					{}
				]
			},
			"Leg B3": {
				"rotate": [
					{}
				],
				"translate": [
					{}
				],
				"scale": [
					{}
				],
				"shear": [
					{}
				]
			},
			"Shadow": {
				"rotate": [
					{}
				],
				"translate": [
					{},
					{ "time": 0.3333, "x": 40.78 },
					{ "time": 0.4667, "x": 101.95 },
					{ "time": 0.5667, "x": 144.68 }
				],
				"scale": [
					{},
					{ "time": 0.1667, "x": 0.697, "y": 0.649 },
					{ "time": 0.3333, "x": 0.622, "y": 0.552 },
					{ "time": 0.4667, "x": 0.818, "y": 0.726 },
					{ "time": 0.5667, "x": 1.129, "y": 1.001 }
				],
				"shear": [
					{}
				]
			}
		}
	},
	"Idle": {
		"bones": {
			"root": {
				"rotate": [
					{ "curve": "stepped" },
					{ "time": 0.6667 }
				],
				"translate": [
					{ "curve": "stepped" },
					{ "time": 0.6667 }
				],
				"scale": [
					{ "curve": "stepped" },
					{ "time": 0.6667 }
				],
				"shear": [
					{ "curve": "stepped" },
					{ "time": 0.6667 }
				]
			},
			"All bone": {
				"rotate": [
					{ "curve": "stepped" },
					{ "time": 0.6667 }
				],
				"translate": [
					{ "curve": "stepped" },
					{ "time": 0.6667 }
				],
				"scale": [
					{ "curve": "stepped" },
					{ "time": 0.6667 }
				],
				"shear": [
					{ "curve": "stepped" },
					{ "time": 0.6667 }
				]
			},
			"Body": {
				"rotate": [
					{ "curve": "stepped" },
					{ "time": 0.6667 }
				],
				"translate": [
					{},
					{ "time": 0.3333, "y": 2.74 },
					{ "time": 0.6667 }
				],
				"scale": [
					{ "curve": "stepped" },
					{ "time": 0.6667 }
				],
				"shear": [
					{ "curve": "stepped" },
					{ "time": 0.6667 }
				]
			},
			"Hand F1": {
				"rotate": [
					{},
					{ "time": 0.3333, "angle": 5.28 },
					{ "time": 0.6667 }
				],
				"translate": [
					{ "curve": "stepped" },
					{ "time": 0.6667 }
				],
				"scale": [
					{ "curve": "stepped" },
					{ "time": 0.6667 }
				],
				"shear": [
					{ "curve": "stepped" },
					{ "time": 0.6667 }
				]
			},
			"Hand F2": {
				"rotate": [
					{ "curve": "stepped" },
					{ "time": 0.6667 }
				],
				"translate": [
					{ "curve": "stepped" },
					{ "time": 0.6667 }
				],
				"scale": [
					{ "curve": "stepped" },
					{ "time": 0.6667 }
				],
				"shear": [
					{ "curve": "stepped" },
					{ "time": 0.6667 }
				]
			},
			"Hand B1": {
				"rotate": [
					{},
					{ "time": 0.3333, "angle": -4.92 },
					{ "time": 0.6667 }
				],
				"translate": [
					{ "x": -0.08, "y": 2.57 },
					{ "time": 0.3333, "x": -0.02, "y": 0.73 },
					{ "time": 0.6667, "x": -0.08, "y": 2.57 }
				],
				"scale": [
					{ "curve": "stepped" },
					{ "time": 0.6667 }
				],
				"shear": [
					{ "curve": "stepped" },
					{ "time": 0.6667 }
				]
			},
			"Hand B2": {
				"rotate": [
					{ "curve": "stepped" },
					{ "time": 0.6667 }
				],
				"translate": [
					{ "curve": "stepped" },
					{ "time": 0.6667 }
				],
				"scale": [
					{ "curve": "stepped" },
					{ "time": 0.6667 }
				],
				"shear": [
					{ "curve": "stepped" },
					{ "time": 0.6667 }
				]
			},
			"Weapon": {
				"rotate": [
					{ "curve": "stepped" },
					{ "time": 0.6667 }
				],
				"translate": [
					{ "curve": "stepped" },
					{ "time": 0.6667 }
				],
				"scale": [
					{ "curve": "stepped" },
					{ "time": 0.6667 }
				],
				"shear": [
					{ "curve": "stepped" },
					{ "time": 0.6667 }
				]
			},
			"Head": {
				"rotate": [
					{},
					{ "time": 0.3333, "angle": 4.62 },
					{ "time": 0.6667 }
				],
				"translate": [
					{ "curve": "stepped" },
					{ "time": 0.6667 }
				],
				"scale": [
					{ "curve": "stepped" },
					{ "time": 0.6667 }
				],
				"shear": [
					{ "curve": "stepped" },
					{ "time": 0.6667 }
				]
			},
			"Leg F1": {
				"rotate": [
					{ "curve": "stepped" },
					{ "time": 0.6667 }
				],
				"translate": [
					{ "curve": "stepped" },
					{ "time": 0.6667 }
				],
				"scale": [
					{ "curve": "stepped" },
					{ "time": 0.6667 }
				],
				"shear": [
					{ "curve": "stepped" },
					{ "time": 0.6667 }
				]
			},
			"Leg F2": {
				"rotate": [
					{ "curve": "stepped" },
					{ "time": 0.6667 }
				],
				"translate": [
					{ "curve": "stepped" },
					{ "time": 0.6667 }
				],
				"scale": [
					{ "curve": "stepped" },
					{ "time": 0.6667 }
				],
				"shear": [
					{ "curve": "stepped" },
					{ "time": 0.6667 }
				]
			},
			"Leg F3": {
				"rotate": [
					{ "curve": "stepped" },
					{ "time": 0.6667 }
				],
				"translate": [
					{ "curve": "stepped" },
					{ "time": 0.6667 }
				],
				"scale": [
					{ "curve": "stepped" },
					{ "time": 0.6667 }
				],
				"shear": [
					{ "curve": "stepped" },
					{ "time": 0.6667 }
				]
			},
			"Leg B1": {
				"rotate": [
					{ "curve": "stepped" },
					{ "time": 0.6667 }
				],
				"translate": [
					{ "curve": "stepped" },
					{ "time": 0.6667 }
				],
				"scale": [
					{ "curve": "stepped" },
					{ "time": 0.6667 }
				],
				"shear": [
					{ "curve": "stepped" },
					{ "time": 0.6667 }
				]
			},
			"Leg B2": {
				"rotate": [
					{ "curve": "stepped" },
					{ "time": 0.6667 }
				],
				"translate": [
					{ "curve": "stepped" },
					{ "time": 0.6667 }
				],
				"scale": [
					{ "curve": "stepped" },
					{ "time": 0.6667 }
				],
				"shear": [
					{ "curve": "stepped" },
					{ "time": 0.6667 }
				]
			},
			"Leg B3": {
				"rotate": [
					{ "curve": "stepped" },
					{ "time": 0.6667 }
				],
				"translate": [
					{ "curve": "stepped" },
					{ "time": 0.6667 }
				],
				"scale": [
					{ "curve": "stepped" },
					{ "time": 0.6667 }
				],
				"shear": [
					{ "curve": "stepped" },
					{ "time": 0.6667 }
				]
			},
			"Shadow": {
				"rotate": [
					{ "curve": "stepped" },
					{ "time": 0.6667 }
				],
				"translate": [
					{ "curve": "stepped" },
					{ "time": 0.6667 }
				],
				"scale": [
					{ "curve": "stepped" },
					{ "time": 0.6667 }
				],
				"shear": [
					{ "curve": "stepped" },
					{ "time": 0.6667 }
				]
			}
		}
	},
	"Walk": {
		"bones": {
			"root": {
				"rotate": [
					{ "curve": "stepped" },
					{ "time": 0.6667 }
				],
				"translate": [
					{ "curve": "stepped" },
					{ "time": 0.6667 }
				],
				"scale": [
					{ "curve": "stepped" },
					{ "time": 0.6667 }
				],
				"shear": [
					{ "curve": "stepped" },
					{ "time": 0.6667 }
				]
			},
			"All bone": {
				"rotate": [
					{ "curve": "stepped" },
					{ "time": 0.6667 }
				],
				"translate": [
					{ "curve": "stepped" },
					{ "time": 0.6667 }
				],
				"scale": [
					{ "curve": "stepped" },
					{ "time": 0.6667 }
				],
				"shear": [
					{ "curve": "stepped" },
					{ "time": 0.6667 }
				]
			},
			"Body": {
				"rotate": [
					{ "curve": "stepped" },
					{ "time": 0.6667 }
				],
				"translate": [
					{},
					{ "time": 0.1667, "y": 2.36 },
					{ "time": 0.3333, "y": 4.51 },
					{ "time": 0.5, "y": 2.36 },
					{ "time": 0.6667 }
				],
				"scale": [
					{ "curve": "stepped" },
					{ "time": 0.6667 }
				],
				"shear": [
					{ "curve": "stepped" },
					{ "time": 0.6667 }
				]
			},
			"Hand F1": {
				"rotate": [
					{},
					{ "time": 0.1667, "angle": -17.24 },
					{ "time": 0.3333, "angle": -47.68 },
					{ "time": 0.5, "angle": -17.24 },
					{ "time": 0.6667 }
				],
				"translate": [
					{},
					{ "time": 0.3333, "x": -0.06, "y": -8.77 },
					{ "time": 0.5, "x": -0.5, "y": -0.02 },
					{ "time": 0.6667 }
				],
				"scale": [
					{ "curve": "stepped" },
					{ "time": 0.6667 }
				],
				"shear": [
					{ "curve": "stepped" },
					{ "time": 0.6667 }
				]
			},
			"Hand F2": {
				"rotate": [
					{ "curve": "stepped" },
					{ "time": 0.6667 }
				],
				"translate": [
					{ "curve": "stepped" },
					{ "time": 0.6667 }
				],
				"scale": [
					{ "curve": "stepped" },
					{ "time": 0.6667 }
				],
				"shear": [
					{ "curve": "stepped" },
					{ "time": 0.6667 }
				]
			},
			"Hand B1": {
				"rotate": [
					{ "angle": 3.38 },
					{ "time": 0.1667, "angle": -339.86 },
					{ "time": 0.3333, "angle": 0.11 },
					{ "time": 0.5, "angle": -339.86 },
					{ "time": 0.6667 }
				],
				"translate": [
					{ "x": 2.68, "y": 1.01 },
					{ "time": 0.1667, "x": 1.05, "y": 5.67 },
					{ "time": 0.3333, "x": -3.97, "y": -1.16 },
					{ "time": 0.5, "x": -0.31, "y": -2.1 },
					{ "time": 0.6667, "x": 0.21, "y": -6.79 }
				],
				"scale": [
					{ "curve": "stepped" },
					{ "time": 0.6667 }
				],
				"shear": [
					{ "curve": "stepped" },
					{ "time": 0.6667 }
				]
			},
			"Hand B2": {
				"rotate": [
					{ "curve": "stepped" },
					{ "time": 0.6667 }
				],
				"translate": [
					{ "x": 1.15, "y": -0.58 },
					{ "time": 0.6667 }
				],
				"scale": [
					{ "curve": "stepped" },
					{ "time": 0.6667 }
				],
				"shear": [
					{ "curve": "stepped" },
					{ "time": 0.6667 }
				]
			},
			"Weapon": {
				"rotate": [
					{ "angle": 367.09 },
					{ "time": 0.1667, "angle": -12.77 },
					{ "time": 0.3333, "angle": 7.58 },
					{ "time": 0.5, "angle": -8.56 },
					{ "time": 0.6667, "angle": 10.46 }
				],
				"translate": [
					{ "x": -8.25, "y": -5.56 },
					{ "time": 0.1667, "x": -6.76, "y": -22.36 },
					{ "time": 0.3333, "x": 5.6, "y": -13.18 },
					{ "time": 0.5, "x": -3.48, "y": -33.37 },
					{ "time": 0.6667, "x": -0.68, "y": -4.29 }
				],
				"scale": [
					{ "curve": "stepped" },
					{ "time": 0.6667 }
				],
				"shear": [
					{ "curve": "stepped" },
					{ "time": 0.6667 }
				]
			},
			"Head": {
				"rotate": [
					{},
					{ "time": 0.1667, "angle": 3.89 },
					{ "time": 0.5, "angle": 5.23 },
					{ "time": 0.6667 }
				],
				"translate": [
					{ "curve": "stepped" },
					{ "time": 0.6667 }
				],
				"scale": [
					{ "curve": "stepped" },
					{ "time": 0.6667 }
				],
				"shear": [
					{ "curve": "stepped" },
					{ "time": 0.6667 }
				]
			},
			"Leg F1": {
				"rotate": [
					{},
					{ "time": 0.1667, "angle": -45.11 },
					{ "time": 0.5, "angle": 3.28 },
					{ "time": 0.6667 }
				],
				"translate": [
					{},
					{ "time": 0.1667, "x": -18.83, "y": 14.76 },
					{ "time": 0.3333, "x": -23.34, "y": 2.89 },
					{ "time": 0.5, "x": -11.55, "y": -1.8 },
					{ "time": 0.6667 }
				],
				"scale": [
					{ "curve": "stepped" },
					{ "time": 0.6667 }
				],
				"shear": [
					{ "curve": "stepped" },
					{ "time": 0.6667 }
				]
			},
			"Leg F2": {
				"rotate": [
					{},
					{ "time": 0.1667, "angle": 31.97 },
					{ "time": 0.3333, "angle": 32.42 },
					{ "time": 0.5, "angle": 23.53 },
					{ "time": 0.6667 }
				],
				"translate": [
					{},
					{ "time": 0.1667, "x": -0.15, "y": 3.68 },
					{ "time": 0.3333, "x": 2.15, "y": 6.2 },
					{ "time": 0.5, "x": 2.5, "y": 4.51 },
					{ "time": 0.6667 }
				],
				"scale": [
					{ "curve": "stepped" },
					{ "time": 0.6667 }
				],
				"shear": [
					{ "curve": "stepped" },
					{ "time": 0.6667 }
				]
			},
			"Leg F3": {
				"rotate": [
					{},
					{ "time": 0.3333, "angle": -9.73 },
					{ "time": 0.5, "angle": -22.65 },
					{ "time": 0.6667 }
				],
				"translate": [
					{ "curve": "stepped" },
					{ "time": 0.3333, "curve": "stepped" },
					{ "time": 0.6667 }
				],
				"scale": [
					{ "curve": "stepped" },
					{ "time": 0.6667 }
				],
				"shear": [
					{ "curve": "stepped" },
					{ "time": 0.6667 }
				]
			},
			"Leg B1": {
				"rotate": [
					{},
					{ "time": 0.1667, "angle": 8.43 },
					{ "time": 0.3333, "angle": 22.07 },
					{ "time": 0.5, "angle": -83.13 },
					{ "time": 0.6667 }
				],
				"translate": [
					{},
					{ "time": 0.1667, "x": 11.98 },
					{ "time": 0.3333, "x": 16.99 },
					{ "time": 0.5, "x": 7.7, "y": 6.77 },
					{ "time": 0.6667 }
				],
				"scale": [
					{ "curve": "stepped" },
					{ "time": 0.6667 }
				],
				"shear": [
					{ "curve": "stepped" },
					{ "time": 0.6667 }
				]
			},
			"Leg B2": {
				"rotate": [
					{},
					{ "time": 0.3333, "angle": 36.29 },
					{ "time": 0.5, "angle": 83.51 },
					{ "time": 0.6667 }
				],
				"translate": [
					{},
					{ "time": 0.3333, "x": 0.89, "y": 2.07 },
					{ "time": 0.5, "x": 0.88, "y": 4.16 },
					{ "time": 0.6667 }
				],
				"scale": [
					{ "curve": "stepped" },
					{ "time": 0.6667 }
				],
				"shear": [
					{ "curve": "stepped" },
					{ "time": 0.6667 }
				]
			},
			"Leg B3": {
				"rotate": [
					{},
					{ "time": 0.1667, "angle": -0.04 },
					{ "time": 0.3333, "angle": -5.85 },
					{ "time": 0.5, "angle": 12.87 },
					{ "time": 0.6667 }
				],
				"translate": [
					{ "curve": "stepped" },
					{ "time": 0.6667 }
				],
				"scale": [
					{ "curve": "stepped" },
					{ "time": 0.6667 }
				],
				"shear": [
					{ "curve": "stepped" },
					{ "time": 0.6667 }
				]
			},
			"Shadow": {
				"rotate": [
					{ "curve": "stepped" },
					{ "time": 0.6667 }
				],
				"translate": [
					{ "curve": "stepped" },
					{ "time": 0.6667 }
				],
				"scale": [
					{},
					{ "time": 0.1667, "x": 0.851, "y": 0.851 },
					{ "time": 0.6667 }
				],
				"shear": [
					{ "curve": "stepped" },
					{ "time": 0.6667 }
				]
			}
		}
	}
}
}