%YAML 1.1
%TAG !u! tag:unity3d.com,2011:
--- !u!114 &11400000
MonoBehaviour:
  m_ObjectHideFlags: 0
  m_CorrespondingSourceObject: {fileID: 0}
  m_PrefabInstance: {fileID: 0}
  m_PrefabAsset: {fileID: 0}
  m_GameObject: {fileID: 0}
  m_Enabled: 1
  m_EditorHideFlags: 0
  m_Script: {fileID: 11500000, guid: 858a897041e2653418487360348a83c3, type: 3}
  m_Name: Legs4
  m_EditorClassIdentifier: 
  hash: 731769560
  description: 
  buyPrice: 50000
  sellPrice: 25000
  sellable: 1
  maxStack: 1
  image: {fileID: 21300000, guid: 2ba3693a46bd80649a4431d1ff76bc1f, type: 3}
  strengthRequirement: 200
  intelligenceRequirement: 200
  cooldownBuff: {fileID: 0}
  category: 5
  attackBonus: 0
  defenseBonus: 100
  strengthBonus: 0
  intelligenceBonus: 0
  inventorySizeBonus: 0
  validate: 0
