%YAML 1.1
%TAG !u! tag:unity3d.com,2011:
--- !u!114 &11400000
MonoBehaviour:
  m_ObjectHideFlags: 0
  m_CorrespondingSourceObject: {fileID: 0}
  m_PrefabInstance: {fileID: 0}
  m_PrefabAsset: {fileID: 0}
  m_GameObject: {fileID: 0}
  m_Enabled: 1
  m_EditorHideFlags: 0
  m_Script: {fileID: 11500000, guid: e3c845bded6daf447bac5d3390b02d7b, type: 3}
  m_Name: 5Restaurant
  m_EditorClassIdentifier: 
  image: {fileID: 21300000, guid: 86a90dc69c14c564893ed723af22632a, type: 3}
  _name: Restaurant
  description: RestaurantDesc
  buyPrice: 2500000
  income: 90000
